Starting Model 59
OptimizeGA
===============================
Saturation threshold = 
Setting up variables
You entered 2 conditions  (event types) that will each be modeled with a regessor. 
 Note that if you enter 0 as a condition number, those events will not be modeled
 (they are assumed to be rest/inter-stimulus interval periods)

Contrasts entered. You entered matrix of 3 contrasts, with weights across 4 conditions.
 Contrasts:
     1     1    -1    -1
     1     0    -1     0
     0     1     0    -1
 ...adding one column to contrast matrix with weights of 0, to model the intercept
You entered a contrast weight vector across 3 contrasts
 	...Using rests of length 1 and resting every 4
================== Parameters ======================
     Total stimuli in scan      : 60
     Fixed rest length in ITIs  : 1
     Fixed Rest stimuli in scan : 11
     Num blank intervals        : 9
     Num of task conds          : 2
     Num stimuli each cond      : 20  20
====================================================
	...generating lists of organisms
	...USING TRANS2BLOCK >
     freqConditions = 0.2         0.2         0.2         0.2
     conditions = 1  2  3  4
REST INTERVALS: not used (to use, freqCond should be one longer than conditions
  ...randomizing organism start state
	...restMatrix is 20 X 40
ans =
     4     4     4     4     4     4     4     4     4     4
     4     4     4     4     4     4     4     4     4     4
     4     4     4     4     4     4     4     4     4     4
     4     4     4     4     4     4     4     4     4     4
     4     4     4     4     4     4     4     4     4     4
======== Num stimuli, averaged across lists (before instruction/rest stimuli) ========
		Condition 0: 9 stimuli, 15% of total stimuli
		Condition 1: 20 stimuli, 33.3333% of total stimuli
		Condition 2: 20 stimuli, 33.3333% of total stimuli
		Condition 3: 0 stimuli, 0% of total stimuli
		Condition 4: 0 stimuli, 0% of total stimuli
======================================================================================
best of generation 1 / cbal. = 94.3583 / Wtd. con eff = 2.4851 / Wtd. HRF eff = 0.71155 / Pop var. = 0.86279 / time = 0.79
best of generation 2 / cbal. = 94.7261 / Wtd. con eff = 2.6696 / Wtd. HRF eff = 0.66993 / Pop var. = 0.84636 / time = 0.71
best of generation 3 / cbal. = 94.7947 / Wtd. con eff = 2.7168 / Wtd. HRF eff = 0.9068 / Pop var. = 0.82544 / time = 0.72
best of generation 4 / cbal. = 94.713 / Wtd. con eff = 2.7689 / Wtd. HRF eff = 0.98283 / Pop var. = 0.8133 / time = 0.72
best of generation 5 / cbal. = 94.2946 / Wtd. con eff = 2.9881 / Wtd. HRF eff = 0.75993 / Pop var. = 0.78711 / time = 0.72
best of generation 6 / cbal. = 94.2946 / Wtd. con eff = 2.9881 / Wtd. HRF eff = 0.75993 / Pop var. = 0.78463 / time = 0.73
best of generation 7 / cbal. = 95.095 / Wtd. con eff = 3.1413 / Wtd. HRF eff = 0.62727 / Pop var. = 0.75387 / time = 0.72
best of generation 8 / cbal. = 95.0794 / Wtd. con eff = 3.1892 / Wtd. HRF eff = 0.59997 / Pop var. = 0.76008 / time = 0.72
best of generation 9 / cbal. = 95.1721 / Wtd. con eff = 3.2953 / Wtd. HRF eff = 0.95175 / Pop var. = 0.73698 / time = 0.73
best of generation 10 / cbal. = 95.1721 / Wtd. con eff = 3.2953 / Wtd. HRF eff = 0.95175 / Pop var. = 0.73819 / time = 0.73
best of generation 11 / cbal. = 95.0459 / Wtd. con eff = 3.363 / Wtd. HRF eff = 0.92867 / Pop var. = 0.73023 / time = 0.72
best of generation 12 / cbal. = 94.8355 / Wtd. con eff = 3.3651 / Wtd. HRF eff = 0.82952 / Pop var. = 0.69855 / time = 0.78
best of generation 13 / cbal. = 95.1962 / Wtd. con eff = 3.3263 / Wtd. HRF eff = 0.92141 / Pop var. = 0.66878 / time = 0.73
best of generation 14 / cbal. = 95.1962 / Wtd. con eff = 3.3263 / Wtd. HRF eff = 0.92141 / Pop var. = 0.64658 / time = 0.73
best of generation 15 / cbal. = 95.1259 / Wtd. con eff = 3.3767 / Wtd. HRF eff = 0.90535 / Pop var. = 0.58314 / time = 0.73
best of generation 16 / cbal. = 95.1638 / Wtd. con eff = 3.4847 / Wtd. HRF eff = 1.1108 / Pop var. = 0.58791 / time = 0.72
best of generation 17 / cbal. = 95.1638 / Wtd. con eff = 3.4847 / Wtd. HRF eff = 1.1108 / Pop var. = 0.56539 / time = 0.73
best of generation 18 / cbal. = 95.1472 / Wtd. con eff = 3.4812 / Wtd. HRF eff = 1.2067 / Pop var. = 0.5659 / time = 0.75
best of generation 19 / cbal. = 95.1472 / Wtd. con eff = 3.4812 / Wtd. HRF eff = 1.2067 / Pop var. = 0.58986 / time = 0.73
best of generation 20 / cbal. = 95.3849 / Wtd. con eff = 3.4777 / Wtd. HRF eff = 1.1861 / Pop var. = 0.55812 / time = 0.73
best of generation 21 / cbal. = 95.3849 / Wtd. con eff = 3.4777 / Wtd. HRF eff = 1.1861 / Pop var. = 0.45728 / time = 0.73
best of generation 22 / cbal. = 95.1971 / Wtd. con eff = 3.519 / Wtd. HRF eff = 1.1624 / Pop var. = 0.41595 / time = 0.73
best of generation 23 / cbal. = 95.0003 / Wtd. con eff = 3.5589 / Wtd. HRF eff = 1.2672 / Pop var. = 0.38 / time = 0.77
best of generation 24 / cbal. = 95.0003 / Wtd. con eff = 3.5589 / Wtd. HRF eff = 1.2672 / Pop var. = 0.44009 / time = 0.73
best of generation 25 / cbal. = 95.0003 / Wtd. con eff = 3.5589 / Wtd. HRF eff = 1.2672 / Pop var. = 0.40569 / time = 0.74
best of generation 26 / cbal. = 94.8812 / Wtd. con eff = 3.5897 / Wtd. HRF eff = 1.1652 / Pop var. = 0.35015 / time = 0.73
best of generation 27 / cbal. = 94.8812 / Wtd. con eff = 3.5897 / Wtd. HRF eff = 1.1652 / Pop var. = 0.43762 / time = 0.74
best of generation 28 / cbal. = 94.8812 / Wtd. con eff = 3.5897 / Wtd. HRF eff = 1.1652 / Pop var. = 0.4162 / time = 0.75
best of generation 29 / cbal. = 94.8812 / Wtd. con eff = 3.5897 / Wtd. HRF eff = 1.1652 / Pop var. = 0.39054 / time = 0.74
best of generation 30 / cbal. = 94.8812 / Wtd. con eff = 3.5897 / Wtd. HRF eff = 1.1652 / Pop var. = 0.4698 / time = 0.76
best of generation 31 / cbal. = 94.8812 / Wtd. con eff = 3.5897 / Wtd. HRF eff = 1.1652 / Pop var. = 0.42598 / time = 0.73
best of generation 32 / cbal. = 94.8812 / Wtd. con eff = 3.5897 / Wtd. HRF eff = 1.1652 / Pop var. = 0.35425 / time = 0.75
best of generation 33 / cbal. = 94.8812 / Wtd. con eff = 3.5897 / Wtd. HRF eff = 1.1652 / Pop var. = 0.44406 / time = 0.74
best of generation 34 / cbal. = 94.8812 / Wtd. con eff = 3.5897 / Wtd. HRF eff = 1.1652 / Pop var. = 0.35989 / time = 0.77
best of generation 35 / cbal. = 94.8265 / Wtd. con eff = 3.6118 / Wtd. HRF eff = 1.4388 / Pop var. = 0.42903 / time = 0.73
best of generation 36 / cbal. = 94.8265 / Wtd. con eff = 3.6118 / Wtd. HRF eff = 1.4388 / Pop var. = 0.39364 / time = 0.74
best of generation 37 / cbal. = 94.8265 / Wtd. con eff = 3.6118 / Wtd. HRF eff = 1.4388 / Pop var. = 0.47269 / time = 0.74
best of generation 38 / cbal. = 94.8265 / Wtd. con eff = 3.6118 / Wtd. HRF eff = 1.4388 / Pop var. = 0.44209 / time = 0.73
best of generation 39 / cbal. = 94.8265 / Wtd. con eff = 3.6118 / Wtd. HRF eff = 1.4388 / Pop var. = 0.42999 / time = 0.75
best of generation 40 / cbal. = 94.8265 / Wtd. con eff = 3.6118 / Wtd. HRF eff = 1.4388 / Pop var. = 0.39101 / time = 0.73
best of generation 41 / cbal. = 94.8265 / Wtd. con eff = 3.6118 / Wtd. HRF eff = 1.4388 / Pop var. = 0.43796 / time = 0.72
best of generation 42 / cbal. = 94.8265 / Wtd. con eff = 3.6118 / Wtd. HRF eff = 1.4388 / Pop var. = 0.41814 / time = 0.75
best of generation 43 / cbal. = 94.8265 / Wtd. con eff = 3.6118 / Wtd. HRF eff = 1.4388 / Pop var. = 0.43037 / time = 0.74
best of generation 44 / cbal. = 94.8265 / Wtd. con eff = 3.6118 / Wtd. HRF eff = 1.4388 / Pop var. = 0.38256 / time = 0.73
best of generation 45 / cbal. = 94.8265 / Wtd. con eff = 3.6118 / Wtd. HRF eff = 1.4388 / Pop var. = 0.48022 / time = 0.76
best of generation 46 / cbal. = 94.8265 / Wtd. con eff = 3.6118 / Wtd. HRF eff = 1.4388 / Pop var. = 0.46807 / time = 0.74
best of generation 47 / cbal. = 94.7341 / Wtd. con eff = 3.6564 / Wtd. HRF eff = 1.3393 / Pop var. = 0.4478 / time = 0.73
best of generation 48 / cbal. = 94.7341 / Wtd. con eff = 3.6564 / Wtd. HRF eff = 1.3393 / Pop var. = 0.42184 / time = 0.74
best of generation 49 / cbal. = 94.7341 / Wtd. con eff = 3.6564 / Wtd. HRF eff = 1.3393 / Pop var. = 0.36777 / time = 0.73
best of generation 50 / cbal. = 94.7341 / Wtd. con eff = 3.6564 / Wtd. HRF eff = 1.3393 / Pop var. = 0.46894 / time = 0.75
best of generation 51 / cbal. = 94.7341 / Wtd. con eff = 3.6564 / Wtd. HRF eff = 1.3393 / Pop var. = 0.41656 / time = 0.73
best of generation 52 / cbal. = 94.7341 / Wtd. con eff = 3.6564 / Wtd. HRF eff = 1.3393 / Pop var. = 0.39023 / time = 0.73
best of generation 53 / cbal. = 94.7341 / Wtd. con eff = 3.6564 / Wtd. HRF eff = 1.3393 / Pop var. = 0.4569 / time = 0.74
best of generation 54 / cbal. = 94.7341 / Wtd. con eff = 3.6564 / Wtd. HRF eff = 1.3393 / Pop var. = 0.40619 / time = 0.73
best of generation 55 / cbal. = 94.7341 / Wtd. con eff = 3.6564 / Wtd. HRF eff = 1.3393 / Pop var. = 0.36299 / time = 0.74
best of generation 56 / cbal. = 94.7801 / Wtd. con eff = 3.6368 / Wtd. HRF eff = 1.7873 / Pop var. = 0.4259 / time = 0.77
best of generation 57 / cbal. = 94.7801 / Wtd. con eff = 3.6368 / Wtd. HRF eff = 1.7873 / Pop var. = 0.41449 / time = 0.73
best of generation 58 / cbal. = 94.7341 / Wtd. con eff = 3.6564 / Wtd. HRF eff = 1.3393 / Pop var. = 0.35799 / time = 0.73
best of generation 59 / cbal. = 94.4735 / Wtd. con eff = 3.6542 / Wtd. HRF eff = 2.4131 / Pop var. = 0.42443 / time = 0.73
best of generation 60 / cbal. = 94.4735 / Wtd. con eff = 3.6542 / Wtd. HRF eff = 2.4131 / Pop var. = 0.4134 / time = 0.73
best of generation 61 / cbal. = 94.5985 / Wtd. con eff = 3.6519 / Wtd. HRF eff = 2.1281 / Pop var. = 0.36184 / time = 0.74
best of generation 62 / cbal. = 94.5985 / Wtd. con eff = 3.6519 / Wtd. HRF eff = 2.1281 / Pop var. = 0.40259 / time = 0.75
best of generation 63 / cbal. = 94.5985 / Wtd. con eff = 3.6519 / Wtd. HRF eff = 2.1281 / Pop var. = 0.4053 / time = 0.73
best of generation 64 / cbal. = 94.5985 / Wtd. con eff = 3.6519 / Wtd. HRF eff = 2.1281 / Pop var. = 0.3707 / time = 0.73
best of generation 65 / cbal. = 94.5985 / Wtd. con eff = 3.6519 / Wtd. HRF eff = 2.1281 / Pop var. = 0.41565 / time = 0.74
best of generation 66 / cbal. = 94.5985 / Wtd. con eff = 3.6519 / Wtd. HRF eff = 2.1281 / Pop var. = 0.37499 / time = 0.73
best of generation 67 / cbal. = 94.5985 / Wtd. con eff = 3.6519 / Wtd. HRF eff = 2.1281 / Pop var. = 0.40608 / time = 0.74
best of generation 68 / cbal. = 94.5985 / Wtd. con eff = 3.6519 / Wtd. HRF eff = 2.1281 / Pop var. = 0.35882 / time = 0.73
best of generation 69 / cbal. = 94.5985 / Wtd. con eff = 3.6519 / Wtd. HRF eff = 2.1281 / Pop var. = 0.42785 / time = 0.73
best of generation 70 / cbal. = 94.5985 / Wtd. con eff = 3.6519 / Wtd. HRF eff = 2.1281 / Pop var. = 0.37958 / time = 0.73
best of generation 71 / cbal. = 94.5985 / Wtd. con eff = 3.6519 / Wtd. HRF eff = 2.1281 / Pop var. = 0.42767 / time = 0.72
best of generation 72 / cbal. = 94.5985 / Wtd. con eff = 3.6519 / Wtd. HRF eff = 2.1281 / Pop var. = 0.37478 / time = 0.77
best of generation 73 / cbal. = 94.5985 / Wtd. con eff = 3.6519 / Wtd. HRF eff = 2.1281 / Pop var. = 0.46585 / time = 0.75
best of generation 74 / cbal. = 94.5985 / Wtd. con eff = 3.6519 / Wtd. HRF eff = 2.1281 / Pop var. = 0.44981 / time = 0.73
best of generation 75 / cbal. = 94.5985 / Wtd. con eff = 3.6519 / Wtd. HRF eff = 2.1281 / Pop var. = 0.40032 / time = 0.73
best of generation 76 / cbal. = 94.5985 / Wtd. con eff = 3.6519 / Wtd. HRF eff = 2.1281 / Pop var. = 0.36812 / time = 0.73
best of generation 77 / cbal. = 94.5985 / Wtd. con eff = 3.6519 / Wtd. HRF eff = 2.1281 / Pop var. = 0.39977 / time = 0.73
best of generation 78 / cbal. = 94.5985 / Wtd. con eff = 3.6519 / Wtd. HRF eff = 2.1281 / Pop var. = 0.41452 / time = 0.74
best of generation 79 / cbal. = 94.5985 / Wtd. con eff = 3.6519 / Wtd. HRF eff = 2.1281 / Pop var. = 0.36953 / time = 0.73
best of generation 80 / cbal. = 94.5985 / Wtd. con eff = 3.6519 / Wtd. HRF eff = 2.1281 / Pop var. = 0.39991 / time = 0.74
best of generation 81 / cbal. = 94.5985 / Wtd. con eff = 3.6519 / Wtd. HRF eff = 2.1281 / Pop var. = 0.43505 / time = 0.73
best of generation 82 / cbal. = 94.5985 / Wtd. con eff = 3.6519 / Wtd. HRF eff = 2.1281 / Pop var. = 0.39411 / time = 0.75
best of generation 83 / cbal. = 94.5985 / Wtd. con eff = 3.6519 / Wtd. HRF eff = 2.1281 / Pop var. = 0.43188 / time = 0.75
best of generation 84 / cbal. = 94.5985 / Wtd. con eff = 3.6519 / Wtd. HRF eff = 2.1281 / Pop var. = 0.39505 / time = 0.76
best of generation 85 / cbal. = 94.5985 / Wtd. con eff = 3.6519 / Wtd. HRF eff = 2.1281 / Pop var. = 0.42495 / time = 0.74
best of generation 86 / cbal. = 94.5985 / Wtd. con eff = 3.6519 / Wtd. HRF eff = 2.1281 / Pop var. = 0.38483 / time = 0.74
best of generation 87 / cbal. = 94.5985 / Wtd. con eff = 3.6519 / Wtd. HRF eff = 2.1281 / Pop var. = 0.43512 / time = 0.74
best of generation 88 / cbal. = 94.5985 / Wtd. con eff = 3.6519 / Wtd. HRF eff = 2.1281 / Pop var. = 0.41862 / time = 0.74
best of generation 89 / cbal. = 94.5985 / Wtd. con eff = 3.6519 / Wtd. HRF eff = 2.1281 / Pop var. = 0.37839 / time = 0.78
best of generation 90 / cbal. = 94.5985 / Wtd. con eff = 3.6519 / Wtd. HRF eff = 2.1281 / Pop var. = 0.4255 / time = 0.74
best of generation 91 / cbal. = 94.5985 / Wtd. con eff = 3.6519 / Wtd. HRF eff = 2.1281 / Pop var. = 0.40917 / time = 0.74
best of generation 92 / cbal. = 94.5985 / Wtd. con eff = 3.6519 / Wtd. HRF eff = 2.1281 / Pop var. = 0.36486 / time = 0.74
best of generation 93 / cbal. = 94.5985 / Wtd. con eff = 3.6519 / Wtd. HRF eff = 2.1281 / Pop var. = 0.41374 / time = 0.75
best of generation 94 / cbal. = 94.5985 / Wtd. con eff = 3.6519 / Wtd. HRF eff = 2.1281 / Pop var. = 0.37511 / time = 0.75
best of generation 95 / cbal. = 94.5985 / Wtd. con eff = 3.6519 / Wtd. HRF eff = 2.1281 / Pop var. = 0.43037 / time = 0.76
best of generation 96 / cbal. = 94.5985 / Wtd. con eff = 3.6519 / Wtd. HRF eff = 2.1281 / Pop var. = 0.37022 / time = 0.74
best of generation 97 / cbal. = 94.5985 / Wtd. con eff = 3.6519 / Wtd. HRF eff = 2.1281 / Pop var. = 0.37551 / time = 0.73
best of generation 98 / cbal. = 94.5985 / Wtd. con eff = 3.6519 / Wtd. HRF eff = 2.1281 / Pop var. = 0.41778 / time = 0.75
best of generation 99 / cbal. = 94.5985 / Wtd. con eff = 3.6519 / Wtd. HRF eff = 2.1281 / Pop var. = 0.39048 / time = 0.74
best of generation 100 / cbal. = 94.5985 / Wtd. con eff = 3.6519 / Wtd. HRF eff = 2.1281 / Pop var. = 0.38335 / time = 0.75
best of generation 101 / cbal. = 94.5985 / Wtd. con eff = 3.6519 / Wtd. HRF eff = 2.1281 / Pop var. = 0.43392 / time = 0.73
best of generation 102 / cbal. = 94.5985 / Wtd. con eff = 3.6519 / Wtd. HRF eff = 2.1281 / Pop var. = 0.37688 / time = 0.74
best of generation 103 / cbal. = 94.5985 / Wtd. con eff = 3.6519 / Wtd. HRF eff = 2.1281 / Pop var. = 0.40343 / time = 0.74
best of generation 104 / cbal. = 94.5985 / Wtd. con eff = 3.6519 / Wtd. HRF eff = 2.1281 / Pop var. = 0.33984 / time = 0.74
best of generation 105 / cbal. = 94.5985 / Wtd. con eff = 3.6519 / Wtd. HRF eff = 2.1281 / Pop var. = 0.37637 / time = 0.75
best of generation 106 / cbal. = 94.5985 / Wtd. con eff = 3.6519 / Wtd. HRF eff = 2.1281 / Pop var. = 0.44632 / time = 0.77
best of generation 107 / cbal. = 94.5985 / Wtd. con eff = 3.6519 / Wtd. HRF eff = 2.1281 / Pop var. = 0.42668 / time = 0.74
best of generation 108 / cbal. = 94.5985 / Wtd. con eff = 3.6519 / Wtd. HRF eff = 2.1281 / Pop var. = 0.39565 / time = 0.74
best of generation 109 / cbal. = 94.5985 / Wtd. con eff = 3.6519 / Wtd. HRF eff = 2.1281 / Pop var. = 0.43811 / time = 0.74
best of generation 110 / cbal. = 94.5985 / Wtd. con eff = 3.6519 / Wtd. HRF eff = 2.1281 / Pop var. = 0.35138 / time = 0.74
best of generation 111 / cbal. = 94.5985 / Wtd. con eff = 3.6519 / Wtd. HRF eff = 2.1281 / Pop var. = 0.43323 / time = 0.77
best of generation 112 / cbal. = 94.5985 / Wtd. con eff = 3.6519 / Wtd. HRF eff = 2.1281 / Pop var. = 0.41414 / time = 0.73
best of generation 113 / cbal. = 94.5985 / Wtd. con eff = 3.6519 / Wtd. HRF eff = 2.1281 / Pop var. = 0.33225 / time = 0.74
best of generation 114 / cbal. = 94.5985 / Wtd. con eff = 3.6519 / Wtd. HRF eff = 2.1281 / Pop var. = 0.41302 / time = 0.73
best of generation 115 / cbal. = 94.5985 / Wtd. con eff = 3.6519 / Wtd. HRF eff = 2.1281 / Pop var. = 0.32639 / time = 0.75
best of generation 116 / cbal. = 94.5985 / Wtd. con eff = 3.6519 / Wtd. HRF eff = 2.1281 / Pop var. = 0.40373 / time = 0.74
best of generation 117 / cbal. = 94.5985 / Wtd. con eff = 3.6519 / Wtd. HRF eff = 2.1281 / Pop var. = 0.34504 / time = 0.73
best of generation 118 / cbal. = 94.5985 / Wtd. con eff = 3.6519 / Wtd. HRF eff = 2.1281 / Pop var. = 0.4117 / time = 0.73
best of generation 119 / cbal. = 94.5985 / Wtd. con eff = 3.6519 / Wtd. HRF eff = 2.1281 / Pop var. = 0.37173 / time = 0.73
best of generation 120 / cbal. = 94.5985 / Wtd. con eff = 3.6519 / Wtd. HRF eff = 2.1281 / Pop var. = 0.45398 / time = 0.73
best of generation 121 / cbal. = 94.5985 / Wtd. con eff = 3.6519 / Wtd. HRF eff = 2.1281 / Pop var. = 0.47095 / time = 0.72
best of generation 122 / cbal. = 94.5985 / Wtd. con eff = 3.6519 / Wtd. HRF eff = 2.1281 / Pop var. = 0.40557 / time = 0.77
best of generation 123 / cbal. = 94.5985 / Wtd. con eff = 3.6519 / Wtd. HRF eff = 2.1281 / Pop var. = 0.35479 / time = 0.74
best of generation 124 / cbal. = 94.5985 / Wtd. con eff = 3.6519 / Wtd. HRF eff = 2.1281 / Pop var. = 0.42532 / time = 0.73
best of generation 125 / cbal. = 94.5985 / Wtd. con eff = 3.6519 / Wtd. HRF eff = 2.1281 / Pop var. = 0.377 / time = 0.73
best of generation 126 / cbal. = 94.5985 / Wtd. con eff = 3.6519 / Wtd. HRF eff = 2.1281 / Pop var. = 0.42417 / time = 0.73
best of generation 127 / cbal. = 94.5985 / Wtd. con eff = 3.6519 / Wtd. HRF eff = 2.1281 / Pop var. = 0.34079 / time = 0.74
best of generation 128 / cbal. = 94.5985 / Wtd. con eff = 3.6519 / Wtd. HRF eff = 2.1281 / Pop var. = 0.37778 / time = 0.73
best of generation 129 / cbal. = 94.5985 / Wtd. con eff = 3.6519 / Wtd. HRF eff = 2.1281 / Pop var. = 0.45355 / time = 0.73
best of generation 130 / cbal. = 94.5985 / Wtd. con eff = 3.6519 / Wtd. HRF eff = 2.1281 / Pop var. = 0.34311 / time = 0.73
best of generation 131 / cbal. = 94.5985 / Wtd. con eff = 3.6519 / Wtd. HRF eff = 2.1281 / Pop var. = 0.43768 / time = 0.73
best of generation 132 / cbal. = 94.5985 / Wtd. con eff = 3.6519 / Wtd. HRF eff = 2.1281 / Pop var. = 0.38999 / time = 0.74
best of generation 133 / cbal. = 94.5985 / Wtd. con eff = 3.6519 / Wtd. HRF eff = 2.1281 / Pop var. = 0.46922 / time = 0.76
best of generation 134 / cbal. = 94.5985 / Wtd. con eff = 3.6519 / Wtd. HRF eff = 2.1281 / Pop var. = 0.45216 / time = 0.73
best of generation 135 / cbal. = 94.5985 / Wtd. con eff = 3.6519 / Wtd. HRF eff = 2.1281 / Pop var. = 0.40116 / time = 0.73
best of generation 136 / cbal. = 94.5985 / Wtd. con eff = 3.6519 / Wtd. HRF eff = 2.1281 / Pop var. = 0.3174 / time = 0.73
best of generation 137 / cbal. = 94.5985 / Wtd. con eff = 3.6519 / Wtd. HRF eff = 2.1281 / Pop var. = 0.39099 / time = 0.74
best of generation 138 / cbal. = 94.5985 / Wtd. con eff = 3.6519 / Wtd. HRF eff = 2.1281 / Pop var. = 0.4482 / time = 0.75
best of generation 139 / cbal. = 94.5985 / Wtd. con eff = 3.6519 / Wtd. HRF eff = 2.1281 / Pop var. = 0.36332 / time = 0.73
best of generation 140 / cbal. = 94.5985 / Wtd. con eff = 3.6519 / Wtd. HRF eff = 2.1281 / Pop var. = 0.44246 / time = 0.74
best of generation 141 / cbal. = 94.5985 / Wtd. con eff = 3.6519 / Wtd. HRF eff = 2.1281 / Pop var. = 0.3786 / time = 0.73
best of generation 142 / cbal. = 94.5985 / Wtd. con eff = 3.6519 / Wtd. HRF eff = 2.1281 / Pop var. = 0.3827 / time = 0.74
best of generation 143 / cbal. = 94.5985 / Wtd. con eff = 3.6519 / Wtd. HRF eff = 2.1281 / Pop var. = 0.42853 / time = 0.73
best of generation 144 / cbal. = 94.5985 / Wtd. con eff = 3.6519 / Wtd. HRF eff = 2.1281 / Pop var. = 0.37428 / time = 0.77
best of generation 145 / cbal. = 94.5985 / Wtd. con eff = 3.6519 / Wtd. HRF eff = 2.1281 / Pop var. = 0.43538 / time = 0.74
best of generation 146 / cbal. = 94.5985 / Wtd. con eff = 3.6519 / Wtd. HRF eff = 2.1281 / Pop var. = 0.39085 / time = 0.73
best of generation 147 / cbal. = 94.5985 / Wtd. con eff = 3.6519 / Wtd. HRF eff = 2.1281 / Pop var. = 0.46696 / time = 0.74
best of generation 148 / cbal. = 94.5985 / Wtd. con eff = 3.6519 / Wtd. HRF eff = 2.1281 / Pop var. = 0.38348 / time = 0.74
best of generation 149 / cbal. = 94.5985 / Wtd. con eff = 3.6519 / Wtd. HRF eff = 2.1281 / Pop var. = 0.46581 / time = 0.75
best of generation 150 / cbal. = 94.5985 / Wtd. con eff = 3.6519 / Wtd. HRF eff = 2.1281 / Pop var. = 0.41578 / time = 0.74
best of generation 151 / cbal. = 94.2385 / Wtd. con eff = 3.6899 / Wtd. HRF eff = 2.3192 / Pop var. = 0.34789 / time = 0.74
best of generation 152 / cbal. = 94.5985 / Wtd. con eff = 3.6519 / Wtd. HRF eff = 2.1281 / Pop var. = 0.39716 / time = 0.73
best of generation 153 / cbal. = 94.5985 / Wtd. con eff = 3.6519 / Wtd. HRF eff = 2.1281 / Pop var. = 0.45809 / time = 0.73
best of generation 154 / cbal. = 94.3512 / Wtd. con eff = 3.6727 / Wtd. HRF eff = 2.3302 / Pop var. = 0.42638 / time = 0.74
best of generation 155 / cbal. = 94.3512 / Wtd. con eff = 3.6727 / Wtd. HRF eff = 2.3302 / Pop var. = 0.39325 / time = 0.78
best of generation 156 / cbal. = 94.3512 / Wtd. con eff = 3.6727 / Wtd. HRF eff = 2.3302 / Pop var. = 0.45357 / time = 0.73
best of generation 157 / cbal. = 94.3512 / Wtd. con eff = 3.6727 / Wtd. HRF eff = 2.3302 / Pop var. = 0.40445 / time = 0.73
best of generation 158 / cbal. = 94.3512 / Wtd. con eff = 3.6727 / Wtd. HRF eff = 2.3302 / Pop var. = 0.3502 / time = 0.73
best of generation 159 / cbal. = 94.3512 / Wtd. con eff = 3.6727 / Wtd. HRF eff = 2.3302 / Pop var. = 0.43182 / time = 0.73
best of generation 160 / cbal. = 94.3512 / Wtd. con eff = 3.6727 / Wtd. HRF eff = 2.3302 / Pop var. = 0.36331 / time = 0.75
saving workspace as GAresults.mat
M = 
     origlist: [49x1 double]
     restlist: [20x1 double]
     stimlist: [60x1 double]
           ga: [1x1 struct]
    bestLists: [60x160 uint8]
         date: '11-9-2014'
optimizeGA done: 120.46 s
